{
  "project_info": {
    "project_number": "150479435684",
    "firebase_url": "https://dummy-e40ce.firebaseio.com",
    "project_id": "dummy-e40ce",
    "storage_bucket": "dummy-e40ce.appspot.com"
  },
  "client": [
    {
      "client_info": {
        "mobilesdk_app_id": "1:150479435684:android:a5e14af6ec7deb12807331",
        "android_client_info": {
          "package_name": "com.example.firebase_try"
        }
      },
      "oauth_client": [
        {
          "client_id": "150479435684-0e3eapaeag1lhne3ouf5r5mql4kjigdt.apps.googleusercontent.com",
          "client_type": 3
        }
      ],
      "api_key": [
        {
          "current_key": "AIzaSyANYMLNlZvq_5KqMi0kxk4PN_uH0QdeAYk"
        }
      ],
      "services": {
        "appinvite_service": {
          "other_platform_oauth_client": [
            {
              "client_id": "150479435684-0e3eapaeag1lhne3ouf5r5mql4kjigdt.apps.googleusercontent.com",
              "client_type": 3
            }
          ]
        }
      }
    }
  ],
  "configuration_version": "1"
}